%YAML 1.1
%TAG !u! tag:unity3d.com,2011:
--- !u!1045 &1
EditorBuildSettings:
  m_ObjectHideFlags: 0
  serializedVersion: 2
  m_Scenes:
  - enabled: 1
    path: Assets/Scenes/ScenesManager.unity
    guid: 5b6254c0ca3547f4bb24b0d4118fc35c
  - enabled: 1
    path: Assets/Extensions/SSSystem/Scenes/SSEmpty.unity
    guid: ef0246d6486ba4a62a69aec8c91a2af1
  - enabled: 1
    path: Assets/Scenes/Popup/ContinuePopup.unity
    guid: 7d30cf6bc56d10c4ab59f3c172b0d249
  - enabled: 1
    path: Assets/Scenes/Popup/Loading.unity
    guid: 216074b112abaf64782fe216f9c7aa00
  - enabled: 1
    path: Assets/Scenes/MainGame.unity
    guid: a42949740c80024428df6ce43d85808d
  - enabled: 1
    path: Assets/Scenes/HomeUI.unity
    guid: fa9db3064e4ee8845ba3764ec9f08d68
  - enabled: 1
    path: Assets/Scenes/Online/JoinRoom.unity
    guid: 035cecc33761d4b49b4c91ce4490b91f
  - enabled: 1
    path: Assets/Scenes/MainMenu.unity
    guid: 4ae41492ed073624cbbc50897e4442d0
  - enabled: 1
    path: Assets/Scenes/ResultUI.unity
    guid: 282d26ef030bf474798b09fd530ae745
  - enabled: 1
    path: Assets/Scenes/SplashScreen.unity
    guid: f0fcd6ac79531a34bb4e0ab1e8b9d10e
  - enabled: 1
    path: Assets/Scenes/AchievementListUI.unity
    guid: 0d6e2d5b3f2f1454da72f626b717637a
  - enabled: 1
    path: Assets/Scenes/Popup/FeedbackPopup.unity
    guid: bf72494517d59e84283be53c0f420b9d
  - enabled: 1
    path: Assets/Scenes/Popup/MessageBoxPopup.unity
    guid: 48385ead78d63cf40a62c4c449a628df
  - enabled: 1
    path: Assets/Scenes/Popup/LivesPopup.unity
    guid: 6f47aeb9869995349914dcbff80732e5
  - enabled: 1
    path: Assets/Scenes/Popup/IAP.unity
    guid: d0b755e997c4eda49b58efa8cb62b178
  - enabled: 1
    path: Assets/Scenes/Popup/DailyRewardPopUp.unity
    guid: 1649dec6122962349be6c1423d5a1de0
  - enabled: 1
    path: Assets/Scenes/Popup/ChooseLanguagePopUp.unity
    guid: e106f2250c592174987a16efd390cf39
  - enabled: 1
    path: Assets/Scenes/Popup/MessageInviteFriends.unity
    guid: 7ec86082a5129444386517ef72c61a4c
  - enabled: 1
    path: Assets/Scenes/Popup/ShareFacebookPopUp.unity
    guid: c58eb2748e6423d4cad31628d504de40
  - enabled: 1
    path: Assets/Scenes/Popup/RemoveAdsPopUp.unity
    guid: 18558817f0987e54bbf0ea2fccb5f1dd
  - enabled: 1
    path: Assets/Scenes/Popup/RatePopUp.unity
    guid: c82b572283f760b4d8b472cc0b8cdaad
  - enabled: 1
    path: Assets/Scenes/Popup/RatePopupNew.unity
    guid: 7c6b801ea7a6fa44496b2afcb1943f9e
  - enabled: 1
    path: Assets/Scenes/Online/OnlineMainGame.unity
    guid: 757b007560e43e84bb68b404d6dd448f
  - enabled: 1
    path: Assets/Scenes/OnBoarding.unity
    guid: 8847a9602e19d6c408c27bfb3acce1da
  - enabled: 1
    path: Assets/Scenes/Popup/LevelUpPopUp.unity
    guid: 9493c8d7ca4e8e84594f21cbcbfa8425
  - enabled: 1
    path: Assets/Scenes/Popup/MessageForceLevelPopup.unity
    guid: e04e564862d33e644a3293a388bf92e7
  - enabled: 1
    path: Assets/Scenes/Popup/UserInfoPopup.unity
    guid: b1c3f05ae136bb843afb4864a52770ad
  - enabled: 1
    path: Assets/Scenes/Popup/CrossPromotionPopup.unity
    guid: 8d5c08842beb58f49a4af3979715f5b0
  - enabled: 1
    path: Assets/Scenes/Popup/LeaderBoardPopup.unity
    guid: cdb903179c90dfb4287dec3cd510e1bd
  - enabled: 1
    path: Assets/Scenes/Online/BattleLobbyFriends.unity
    guid: b0523df82d36c7743a309176cb3d3d86
  - enabled: 1
    path: Assets/Scenes/Popup/DialogInput.unity
    guid: 91a0e0e89fe330b4a8b8fdf82aa7b1d0
  - enabled: 1
    path: Assets/Scenes/Popup/ExitPopup.unity
    guid: 9ce3781559b3af44a974656248614cd0
  - enabled: 1
    path: Assets/Scenes/Popup/ProfileConflict.unity
    guid: 65f999cea8330d840aac137ce3b2aec7
  - enabled: 1
    path: Assets/Scenes/Popup/UpdatePopup.unity
    guid: 00487bc45b0134a4d9552ad256ee26cf
  - enabled: 1
    path: Assets/Scenes/Popup/DailyFreeSongPopup.unity
    guid: 047be429356874f4098f3f45e32c99be
  - enabled: 1
    path: Assets/Scenes/Popup/SongLeaderboardPopup.unity
    guid: 1f9aea65aec50a84b921fb281440b3f0
  - enabled: 1
    path: Assets/Scenes/PSGameplay.unity
    guid: be438447e4fc6cb44bdb1a646df0df15
  - enabled: 1
    path: Assets/Scenes/PSResultUI.unity
    guid: 4a657a8f154e43f46a8a24d3912763e5
  - enabled: 1
    path: Assets/Scenes/Popup/PSContinuePopup.unity
    guid: 41d29f317e725ae4eb77558f6bd26587
  m_configObjects: {}
