﻿{
  "notes": [
    {
      "name": "D#6",
      "midi": 87,
      "time": 0.48561905625,
      "velocity": 0.7874015748031497,
      "duration": 0.5287606125000002
    },
    {
      "name": "D#6",
      "midi": 87,
      "time": 1.0165920562500002,
      "velocity": 0.7874015748031497,
      "duration": 0.5287606125
    },
    {
      "name": "D#6",
      "midi": 87,
      "time": 1.54756505625,
      "velocity": 0.7874015748031497,
      "duration": 0.5719021687500001
    },
    {
      "name": "D#6",
      "midi": 87,
      "time": 2.123892,
      "velocity": 0.7874015748031497,
      "duration": 0.5707959749999998
    },
    {
      "name": "D#6",
      "midi": 87,
      "time": 2.6980065562499997,
      "velocity": 0.7874015748031497,
      "duration": 0.6172561125000002
    },
    {
      "name": "D#6",
      "midi": 87,
      "time": 3.31747505625,
      "velocity": 0.7874015748031497,
      "duration": 0.5287606125000002
    },
    {
      "name": "D#6",
      "midi": 87,
      "time": 3.8484480562500005,
      "velocity": 0.7874015748031497,
      "duration": 0.5730083625000004
    },
    {
      "name": "D#6",
      "midi": 87,
      "time": 4.423668806250001,
      "velocity": 0.7874015748031497,
      "duration": 0.5719021687500003
    },
    {
      "name": "D#6",
      "midi": 87,
      "time": 4.998889556250002,
      "velocity": 0.7874015748031497,
      "duration": 0.5719021687500003
    },
    {
      "name": "D#6",
      "midi": 87,
      "time": 5.574110306250002,
      "velocity": 0.7874015748031497,
      "duration": 0.5730083624999995
    },
    {
      "name": "D#6",
      "midi": 87,
      "time": 6.150437250000002,
      "velocity": 0.7874015748031497,
      "duration": 0.5276544187500001
    },
    {
      "name": "D#6",
      "midi": 87,
      "time": 6.6814102500000025,
      "velocity": 0.7874015748031497,
      "duration": 0.5719021687500003
    },
    {
      "name": "D#6",
      "midi": 87,
      "time": 7.255524806250003,
      "velocity": 0.7874015748031497,
      "duration": 0.6172561124999998
    },
    {
      "name": "D#6",
      "midi": 87,
      "time": 7.876099500000003,
      "velocity": 0.7874015748031497,
      "duration": 0.4834066687500007
    },
    {
      "name": "D#6",
      "midi": 87,
      "time": 8.361718556250004,
      "velocity": 0.7874015748031497,
      "duration": 0.6172561124999998
    },
    {
      "name": "D#6",
      "midi": 87,
      "time": 8.982293250000003,
      "velocity": 0.7874015748031497,
      "duration": 0.5276544187500001
    },
    {
      "name": "D#6",
      "midi": 87,
      "time": 9.513266250000003,
      "velocity": 0.7874015748031497,
      "duration": 0.5719021687500003
    },
    {
      "name": "D#6",
      "midi": 87,
      "time": 10.088487000000002,
      "velocity": 0.7874015748031497,
      "duration": 0.5730083624999995
    },
    {
      "name": "D#6",
      "midi": 87,
      "time": 10.663707750000002,
      "velocity": 0.7874015748031497,
      "duration": 0.5719021687500003
    },
    {
      "name": "D#6",
      "midi": 87,
      "time": 11.238928500000002,
      "velocity": 0.7874015748031497,
      "duration": 0.5276544187500001
    },
    {
      "name": "D#6",
      "midi": 87,
      "time": 11.769901500000001,
      "velocity": 0.7874015748031497,
      "duration": 0.6161499187500006
    },
    {
      "name": "D#6",
      "midi": 87,
      "time": 12.389370000000001,
      "velocity": 0.7874015748031497,
      "duration": 0.5276544187500001
    },
    {
      "name": "D#6",
      "midi": 87,
      "time": 12.920343,
      "velocity": 0.7874015748031497,
      "duration": 0.5276544187500001
    },
    {
      "name": "D#6",
      "midi": 87,
      "time": 13.451316,
      "velocity": 0.7874015748031497,
      "duration": 0.6161499187500006
    },
    {
      "name": "D#6",
      "midi": 87,
      "time": 14.0707845,
      "velocity": 0.7874015748031497,
      "duration": 0.5287606124999993
    },
    {
      "name": "D#6",
      "midi": 87,
      "time": 14.6017575,
      "velocity": 0.7874015748031497,
      "duration": 0.5287606124999993
    },
    {
      "name": "D#6",
      "midi": 87,
      "time": 15.1327305,
      "velocity": 0.7874015748031497,
      "duration": 0.5719021687500003
    },
    {
      "name": "D#6",
      "midi": 87,
      "time": 15.707951249999999,
      "velocity": 0.7874015748031497,
      "duration": 0.5719021687499986
    },
    {
      "name": "D#6",
      "midi": 87,
      "time": 16.283171999999997,
      "velocity": 0.7874015748031497,
      "duration": 0.5276544187500001
    },
    {
      "name": "D#6",
      "midi": 87,
      "time": 16.814144999999996,
      "velocity": 0.7874015748031497,
      "duration": 0.6172561125000016
    },
    {
      "name": "D#6",
      "midi": 87,
      "time": 17.433613499999996,
      "velocity": 0.7874015748031497,
      "duration": 0.5287606125000011
    },
    {
      "name": "D#6",
      "midi": 87,
      "time": 17.964586499999996,
      "velocity": 0.7874015748031497,
      "duration": 0.5719021687500003
    },
    {
      "name": "D#6",
      "midi": 87,
      "time": 18.539807249999996,
      "velocity": 0.7874015748031497,
      "duration": 0.6161499187500006
    },
    {
      "name": "D#6",
      "midi": 87,
      "time": 19.159275749999995,
      "velocity": 0.7874015748031497,
      "duration": 0.5276544187500001
    },
    {
      "name": "D#6",
      "midi": 87,
      "time": 19.690248749999995,
      "velocity": 0.7874015748031497,
      "duration": 0.5276544187500001
    },
    {
      "name": "D#6",
      "midi": 87,
      "time": 20.221221749999994,
      "velocity": 0.7874015748031497,
      "duration": 0.5719021687500003
    },
    {
      "name": "D#6",
      "midi": 87,
      "time": 20.796442499999994,
      "velocity": 0.7874015748031497,
      "duration": 0.6161499187500006
    },
    {
      "name": "D#6",
      "midi": 87,
      "time": 21.415910999999994,
      "velocity": 0.7874015748031497,
      "duration": 0.5276544187500001
    },
    {
      "name": "D#6",
      "midi": 87,
      "time": 21.946883999999994,
      "velocity": 0.7874015748031497,
      "duration": 0.5276544187500001
    },
    {
      "name": "D#6",
      "midi": 87,
      "time": 22.477856999999993,
      "velocity": 0.7874015748031497,
      "duration": 0.5276544187500001
    },
    {
      "name": "D#6",
      "midi": 87,
      "time": 23.008829999999993,
      "velocity": 0.7874015748031497,
      "duration": 0.5719021687500003
    },
    {
      "name": "D#6",
      "midi": 87,
      "time": 23.584050749999992,
      "velocity": 0.7874015748031497,
      "duration": 0.5719021687500003
    },
    {
      "name": "D#6",
      "midi": 87,
      "time": 24.159271499999992,
      "velocity": 0.7874015748031497,
      "duration": 0.5719021687500003
    },
    {
      "name": "D#6",
      "midi": 87,
      "time": 24.73449224999999,
      "velocity": 0.7874015748031497,
      "duration": 0.5730083625000013
    },
    {
      "name": "D#6",
      "midi": 87,
      "time": 25.30971299999999,
      "velocity": 0.7874015748031497,
      "duration": 0.6161499187500006
    },
    {
      "name": "D#6",
      "midi": 87,
      "time": 25.92918149999999,
      "velocity": 0.7874015748031497,
      "duration": 0.5276544187500001
    },
    {
      "name": "D#6",
      "midi": 87,
      "time": 26.46015449999999,
      "velocity": 0.7874015748031497,
      "duration": 0.5276544187500001
    },
    {
      "name": "D#6",
      "midi": 87,
      "time": 26.99112749999999,
      "velocity": 0.7874015748031497,
      "duration": 0.5719021687500003
    },
    {
      "name": "D#6",
      "midi": 87,
      "time": 27.56634824999999,
      "velocity": 0.7874015748031497,
      "duration": 0.6161499187500006
    },
    {
      "name": "D#6",
      "midi": 87,
      "time": 28.18581674999999,
      "velocity": 0.7874015748031497,
      "duration": 0.4845128625000008
    },
    {
      "name": "D#6",
      "midi": 87,
      "time": 28.67254199999999,
      "velocity": 0.7874015748031497,
      "duration": 0.5287606125000011
    },
    {
      "name": "D#6",
      "midi": 87,
      "time": 29.20351499999999,
      "velocity": 0.7874015748031497,
      "duration": 0.5730083625000013
    },
    {
      "name": "D#6",
      "midi": 87,
      "time": 29.77873574999999,
      "velocity": 0.7874015748031497,
      "duration": 0.6161499187500006
    },
    {
      "name": "D#6",
      "midi": 87,
      "time": 30.39820424999999,
      "velocity": 0.7874015748031497,
      "duration": 0.5719021687500003
    },
    {
      "name": "D#6",
      "midi": 87,
      "time": 30.973424999999988,
      "velocity": 0.7874015748031497,
      "duration": 0.5276544187500001
    },
    {
      "name": "D#6",
      "midi": 87,
      "time": 31.504397999999988,
      "velocity": 0.7874015748031497,
      "duration": 0.5730083624999978
    },
    {
      "name": "D#6",
      "midi": 87,
      "time": 32.07961874999999,
      "velocity": 0.7874015748031497,
      "duration": 0.5287606125000011
    },
    {
      "name": "D#6",
      "midi": 87,
      "time": 32.61059174999999,
      "velocity": 0.7874015748031497,
      "duration": 0.616149918749997
    },
    {
      "name": "D#6",
      "midi": 87,
      "time": 33.23006024999999,
      "velocity": 0.7874015748031497,
      "duration": 0.5719021687500003
    },
    {
      "name": "D#6",
      "midi": 87,
      "time": 33.80528099999999,
      "velocity": 0.7874015748031497,
      "duration": 0.5730083624999978
    },
    {
      "name": "D#6",
      "midi": 87,
      "time": 34.380501749999986,
      "velocity": 0.7874015748031497,
      "duration": 0.616149918749997
    },
    {
      "name": "D#6",
      "midi": 87,
      "time": 34.99997024999998,
      "velocity": 0.7874015748031497,
      "duration": 0.5276544187499965
    },
    {
      "name": "D#6",
      "midi": 87,
      "time": 35.53094324999998,
      "velocity": 0.7874015748031497,
      "duration": 0.5719021687500003
    },
    {
      "name": "D#6",
      "midi": 87,
      "time": 36.10616399999998,
      "velocity": 0.7874015748031497,
      "duration": 0.6172561125000016
    },
    {
      "name": "D#6",
      "midi": 87,
      "time": 36.72563249999998,
      "velocity": 0.7874015748031497,
      "duration": 0.5287606125000011
    },
    {
      "name": "D#6",
      "midi": 87,
      "time": 37.256605499999985,
      "velocity": 0.7874015748031497,
      "duration": 0.4834066687499998
    },
    {
      "name": "D#6",
      "midi": 87,
      "time": 37.743330749999984,
      "velocity": 0.7874015748031497,
      "duration": 0.5730083624999978
    },
    {
      "name": "D#6",
      "midi": 87,
      "time": 38.318551499999984,
      "velocity": 0.7874015748031497,
      "duration": 0.5719021687500003
    },
    {
      "name": "D#6",
      "midi": 87,
      "time": 38.893772249999984,
      "velocity": 0.7874015748031497,
      "duration": 0.5287606125000011
    },
    {
      "name": "D#6",
      "midi": 87,
      "time": 39.42474524999999,
      "velocity": 0.7874015748031497,
      "duration": 0.5287606125000011
    },
    {
      "name": "D#6",
      "midi": 87,
      "time": 39.95571824999999,
      "velocity": 0.7874015748031497,
      "duration": 0.5287606125000011
    },
    {
      "name": "D#6",
      "midi": 87,
      "time": 40.48669124999999,
      "velocity": 0.7874015748031497,
      "duration": 0.5719021687500003
    },
    {
      "name": "D#6",
      "midi": 87,
      "time": 41.06191199999999,
      "velocity": 0.7874015748031497,
      "duration": 0.5276544187500036
    },
    {
      "name": "D#6",
      "midi": 87,
      "time": 41.592884999999995,
      "velocity": 0.7874015748031497,
      "duration": 0.48451286249999725
    },
    {
      "name": "D#6",
      "midi": 87,
      "time": 42.079610249999995,
      "velocity": 0.7874015748031497,
      "duration": 0.5287606125000011
    },
    {
      "name": "D#6",
      "midi": 87,
      "time": 42.61058325,
      "velocity": 0.7874015748031497,
      "duration": 0.5719021687500003
    },
    {
      "name": "D#6",
      "midi": 87,
      "time": 43.185804,
      "velocity": 0.7874015748031497,
      "duration": 0.5276544187499965
    },
    {
      "name": "D#6",
      "midi": 87,
      "time": 43.71677699999999,
      "velocity": 0.7874015748031497,
      "duration": 0.5287606125000011
    },
    {
      "name": "D#6",
      "midi": 87,
      "time": 44.247749999999996,
      "velocity": 0.7874015748031497,
      "duration": 0.5287606125000011
    },
    {
      "name": "D#6",
      "midi": 87,
      "time": 44.778723,
      "velocity": 0.7874015748031497,
      "duration": 0.5719021687500003
    },
    {
      "name": "D#6",
      "midi": 87,
      "time": 45.35394375,
      "velocity": 0.7874015748031497,
      "duration": 0.5276544187500036
    },
    {
      "name": "D#6",
      "midi": 87,
      "time": 45.88491675,
      "velocity": 0.7874015748031497,
      "duration": 0.5276544187500036
    },
    {
      "name": "D#6",
      "midi": 87,
      "time": 46.415889750000005,
      "velocity": 0.7874015748031497,
      "duration": 0.5719021687500003
    },
    {
      "name": "D#6",
      "midi": 87,
      "time": 46.991110500000005,
      "velocity": 0.7874015748031497,
      "duration": 0.5276544187500036
    },
    {
      "name": "D#6",
      "midi": 87,
      "time": 47.52208350000001,
      "velocity": 0.7874015748031497,
      "duration": 0.4834066687499998
    },
    {
      "name": "D#6",
      "midi": 87,
      "time": 48.00880875000001,
      "velocity": 0.7874015748031497,
      "duration": 0.5719021687500003
    },
    {
      "name": "D#6",
      "midi": 87,
      "time": 48.58402950000001,
      "velocity": 0.7874015748031497,
      "duration": 0.5276544187499965
    },
    {
      "name": "D#6",
      "midi": 87,
      "time": 49.1150025,
      "velocity": 0.7874015748031497,
      "duration": 0.5719021687500003
    },
    {
      "name": "D#6",
      "midi": 87,
      "time": 49.69022325,
      "velocity": 0.7874015748031497,
      "duration": 0.5719021687500003
    },
    {
      "name": "D#6",
      "midi": 87,
      "time": 50.265444,
      "velocity": 0.7874015748031497,
      "duration": 0.4834066687499998
    },
    {
      "name": "D#6",
      "midi": 87,
      "time": 50.75216925,
      "velocity": 0.7874015748031497,
      "duration": 0.5719021687500003
    },
    {
      "name": "D#6",
      "midi": 87,
      "time": 51.32739,
      "velocity": 0.7874015748031497,
      "duration": 0.5276544187499965
    },
    {
      "name": "D#6",
      "midi": 87,
      "time": 51.858363,
      "velocity": 0.7874015748031497,
      "duration": 1.1039813625000008
    },
    {
      "name": "D#6",
      "midi": 87,
      "time": 52.96455675,
      "velocity": 0.7874015748031497,
      "duration": 1.1039813625000008
    },
    {
      "name": "D#6",
      "midi": 87,
      "time": 54.0707505,
      "velocity": 0.7874015748031497,
      "duration": 0.5287606125000011
    },
    {
      "name": "D#6",
      "midi": 87,
      "time": 54.601723500000006,
      "velocity": 0.7874015748031497,
      "duration": 0.2621679187500021
    },
    {
      "name": "D#6",
      "midi": 87,
      "time": 54.86721000000001,
      "velocity": 0.7874015748031497,
      "duration": 0.26327411249999955
    },
    {
      "name": "D#6",
      "midi": 87,
      "time": 55.13269650000001,
      "velocity": 0.7874015748031497,
      "duration": 0.5287606125000011
    },
    {
      "name": "D#6",
      "midi": 87,
      "time": 55.66366950000001,
      "velocity": 0.7874015748031497,
      "duration": 0.2621679187500021
    },
    {
      "name": "D#6",
      "midi": 87,
      "time": 55.92915600000001,
      "velocity": 0.7874015748031497,
      "duration": 0.26327411249999955
    },
    {
      "name": "D#6",
      "midi": 87,
      "time": 56.194642500000015,
      "velocity": 0.7874015748031497,
      "duration": 0.2179201687499983
    },
    {
      "name": "D#6",
      "midi": 87,
      "time": 56.41588125000001,
      "velocity": 0.7874015748031497,
      "duration": 0.2621679187500021
    },
    {
      "name": "D#6",
      "midi": 87,
      "time": 56.681367750000014,
      "velocity": 0.7874015748031497,
      "duration": 0.21902636250000285
    },
    {
      "name": "D#6",
      "midi": 87,
      "time": 56.90260650000002,
      "velocity": 0.7874015748031497,
      "duration": 0.2621679187500021
    },
    {
      "name": "D#6",
      "midi": 87,
      "time": 57.16809300000002,
      "velocity": 0.7874015748031497,
      "duration": 0.26327411249999955
    },
    {
      "name": "D#6",
      "midi": 87,
      "time": 57.43357950000002,
      "velocity": 0.7874015748031497,
      "duration": 0.2621679187500021
    },
    {
      "name": "D#6",
      "midi": 87,
      "time": 57.69906600000002,
      "velocity": 0.7874015748031497,
      "duration": 0.2179201687499983
    },
    {
      "name": "D#6",
      "midi": 87,
      "time": 57.92030475000002,
      "velocity": 0.7874015748031497,
      "duration": 0.3064156687499988
    },
    {
      "name": "D#6",
      "midi": 87,
      "time": 58.23003900000002,
      "velocity": 0.7874015748031497,
      "duration": 0.48451286249999725
    },
    {
      "name": "D#6",
      "midi": 87,
      "time": 58.761012000000015,
      "velocity": 0.7874015748031497,
      "duration": 0.2179201687499983
    },
    {
      "name": "D#6",
      "midi": 87,
      "time": 58.98225075000001,
      "velocity": 0.7874015748031497,
      "duration": 0.2179201687499983
    },
    {
      "name": "D#6",
      "midi": 87,
      "time": 59.20348950000001,
      "velocity": 0.7874015748031497,
      "duration": 0.5730083624999978
    },
    {
      "name": "D#6",
      "midi": 87,
      "time": 59.77871025000001,
      "velocity": 0.7874015748031497,
      "duration": 0.2179201687499983
    },
    {
      "name": "D#6",
      "midi": 87,
      "time": 59.99994900000001,
      "velocity": 0.7874015748031497,
      "duration": 0.2621679187500021
    },
    {
      "name": "D#6",
      "midi": 87,
      "time": 60.26543550000001,
      "velocity": 0.7874015748031497,
      "duration": 0.21902636250000285
    },
    {
      "name": "D#6",
      "midi": 87,
      "time": 60.486674250000014,
      "velocity": 0.7874015748031497,
      "duration": 0.2621679187500021
    },
    {
      "name": "D#6",
      "midi": 87,
      "time": 60.752160750000016,
      "velocity": 0.7874015748031497,
      "duration": 0.26327411249999955
    },
    {
      "name": "D#6",
      "midi": 87,
      "time": 61.01764725000002,
      "velocity": 0.7874015748031497,
      "duration": 0.2621679187500021
    },
    {
      "name": "D#6",
      "midi": 87,
      "time": 61.28313375000002,
      "velocity": 0.7874015748031497,
      "duration": 0.26327411249999955
    },
    {
      "name": "D#6",
      "midi": 87,
      "time": 61.54862025000002,
      "velocity": 0.7874015748031497,
      "duration": 0.2179201687499983
    },
    {
      "name": "D#6",
      "midi": 87,
      "time": 61.76985900000002,
      "velocity": 0.7874015748031497,
      "duration": 0.2179201687499983
    },
    {
      "name": "D#6",
      "midi": 87,
      "time": 61.991097750000016,
      "velocity": 0.7874015748031497,
      "duration": 0.3064156687499988
    },
    {
      "name": "D#6",
      "midi": 87,
      "time": 62.300832000000014,
      "velocity": 0.7874015748031497,
      "duration": 0.48451286249999725
    },
    {
      "name": "D#6",
      "midi": 87,
      "time": 62.78755725000001,
      "velocity": 0.7874015748031497,
      "duration": 0.2179201687499983
    },
    {
      "name": "D#6",
      "midi": 87,
      "time": 63.00879600000001,
      "velocity": 0.7874015748031497,
      "duration": 0.2621679187500021
    },
    {
      "name": "D#6",
      "midi": 87,
      "time": 63.27428250000001,
      "velocity": 0.7874015748031497,
      "duration": 0.5730083624999978
    },
    {
      "name": "D#6",
      "midi": 87,
      "time": 63.84950325000001,
      "velocity": 0.7874015748031497,
      "duration": 0.21902636250000285
    },
    {
      "name": "D#6",
      "midi": 87,
      "time": 64.07074200000001,
      "velocity": 0.7874015748031497,
      "duration": 0.262167918749995
    },
    {
      "name": "D#6",
      "midi": 87,
      "time": 64.3362285,
      "velocity": 0.7874015748031497,
      "duration": 0.2179201687499983
    },
    {
      "name": "D#6",
      "midi": 87,
      "time": 64.55746725,
      "velocity": 0.7874015748031497,
      "duration": 0.21902636250000285
    },
    {
      "name": "D#6",
      "midi": 87,
      "time": 64.778706,
      "velocity": 0.7874015748031497,
      "duration": 0.262167918749995
    },
    {
      "name": "D#6",
      "midi": 87,
      "time": 65.0441925,
      "velocity": 0.7874015748031497,
      "duration": 0.26327411249999955
    },
    {
      "name": "D#6",
      "midi": 87,
      "time": 65.30967899999999,
      "velocity": 0.7874015748031497,
      "duration": 0.2179201687499983
    },
    {
      "name": "D#6",
      "midi": 87,
      "time": 65.53091774999999,
      "velocity": 0.7874015748031497,
      "duration": 0.262167918749995
    },
    {
      "name": "D#6",
      "midi": 87,
      "time": 65.79640424999998,
      "velocity": 0.7874015748031497,
      "duration": 0.262167918749995
    },
    {
      "name": "D#6",
      "midi": 87,
      "time": 66.06189074999998,
      "velocity": 0.7874015748031497,
      "duration": 0.262167918749995
    },
    {
      "name": "D#6",
      "midi": 87,
      "time": 66.32737724999997,
      "velocity": 0.7874015748031497,
      "duration": 0.5276544187500036
    },
    {
      "name": "D#6",
      "midi": 87,
      "time": 66.85835024999997,
      "velocity": 0.7874015748031497,
      "duration": 0.21902636250000285
    },
    {
      "name": "D#6",
      "midi": 87,
      "time": 67.07958899999997,
      "velocity": 0.7874015748031497,
      "duration": 0.2179201687499983
    },
    {
      "name": "D#6",
      "midi": 87,
      "time": 67.30082774999997,
      "velocity": 0.7874015748031497,
      "duration": 0.5276544187500036
    },
    {
      "name": "D#6",
      "midi": 87,
      "time": 67.83180074999997,
      "velocity": 0.7874015748031497,
      "duration": 0.2179201687499983
    },
    {
      "name": "D#6",
      "midi": 87,
      "time": 68.05303949999997,
      "velocity": 0.7874015748031497,
      "duration": 0.26327411249999955
    },
    {
      "name": "D#6",
      "midi": 87,
      "time": 68.31852599999996,
      "velocity": 0.7874015748031497,
      "duration": 0.262167918749995
    },
    {
      "name": "D#6",
      "midi": 87,
      "time": 68.58401249999996,
      "velocity": 0.7874015748031497,
      "duration": 0.262167918749995
    },
    {
      "name": "D#6",
      "midi": 87,
      "time": 68.84949899999995,
      "velocity": 0.7874015748031497,
      "duration": 0.262167918749995
    },
    {
      "name": "D#6",
      "midi": 87,
      "time": 69.11498549999995,
      "velocity": 0.7874015748031497,
      "duration": 0.2179201687499983
    },
    {
      "name": "D#6",
      "midi": 87,
      "time": 69.33622424999994,
      "velocity": 0.7874015748031497,
      "duration": 0.26327411249999955
    },
    {
      "name": "D#6",
      "midi": 87,
      "time": 69.60171074999994,
      "velocity": 0.7874015748031497,
      "duration": 0.262167918749995
    },
    {
      "name": "D#6",
      "midi": 87,
      "time": 69.86719724999993,
      "velocity": 0.7874015748031497,
      "duration": 0.3064156687500059
    },
    {
      "name": "D#6",
      "midi": 87,
      "time": 70.17693149999994,
      "velocity": 0.7874015748031497,
      "duration": 0.30752186249999625
    },
    {
      "name": "D#6",
      "midi": 87,
      "time": 70.48666574999993,
      "velocity": 0.7874015748031497,
      "duration": 0.528760612499994
    },
    {
      "name": "D#6",
      "midi": 87,
      "time": 71.01763874999992,
      "velocity": 0.7874015748031497,
      "duration": 0.262167918749995
    },
    {
      "name": "D#6",
      "midi": 87,
      "time": 71.28312524999991,
      "velocity": 0.7874015748031497,
      "duration": 0.26327411249999955
    },
    {
      "name": "D#6",
      "midi": 87,
      "time": 71.5486117499999,
      "velocity": 0.7874015748031497,
      "duration": 0.528760612499994
    },
    {
      "name": "D#6",
      "midi": 87,
      "time": 72.0795847499999,
      "velocity": 0.7874015748031497,
      "duration": 0.262167918749995
    },
    {
      "name": "D#6",
      "midi": 87,
      "time": 72.34507124999989,
      "velocity": 0.7874015748031497,
      "duration": 0.26327411249999955
    },
    {
      "name": "D#6",
      "midi": 87,
      "time": 72.61055774999988,
      "velocity": 0.7874015748031497,
      "duration": 0.262167918749995
    },
    {
      "name": "D#6",
      "midi": 87,
      "time": 72.87604424999988,
      "velocity": 0.7874015748031497,
      "duration": 0.22898210625000104
    },
    {
      "name": "D#6",
      "midi": 87,
      "time": 73.10834493749988,
      "velocity": 0.7874015748031497,
      "duration": 0.23008830000000557
    },
    {
      "name": "D#6",
      "midi": 87,
      "time": 73.34064562499988,
      "velocity": 0.7874015748031497,
      "duration": 0.22898210625000104
    },
    {
      "name": "D#6",
      "midi": 87,
      "time": 73.57294631249988,
      "velocity": 0.7874015748031497,
      "duration": 0.22898210625000104
    },
    {
      "name": "D#6",
      "midi": 87,
      "time": 73.80524699999988,
      "velocity": 0.7874015748031497,
      "duration": 0.26327411249999955
    },
    {
      "name": "D#6",
      "midi": 87,
      "time": 74.07073349999987,
      "velocity": 0.7874015748031497,
      "duration": 0.262167918749995
    },
    {
      "name": "D#6",
      "midi": 87,
      "time": 74.33621999999987,
      "velocity": 0.7874015748031497,
      "duration": 0.26327411249999955
    },
    {
      "name": "D#6",
      "midi": 87,
      "time": 74.60170649999986,
      "velocity": 0.7874015748031497,
      "duration": 0.5608402312499976
    },
    {
      "name": "D#6",
      "midi": 87,
      "time": 75.16586531249986,
      "velocity": 0.7874015748031497,
      "duration": 0.22898210625000104
    },
    {
      "name": "D#6",
      "midi": 87,
      "time": 75.39816599999986,
      "velocity": 0.7874015748031497,
      "duration": 0.26327411249999955
    },
    {
      "name": "D#6",
      "midi": 87,
      "time": 75.66365249999986,
      "velocity": 0.7874015748031497,
      "duration": 0.528760612499994
    },
    {
      "name": "D#6",
      "midi": 87,
      "time": 76.19462549999984,
      "velocity": 0.7874015748031497,
      "duration": 0.22898210625000104
    },
    {
      "name": "D#6",
      "midi": 87,
      "time": 76.42692618749984,
      "velocity": 0.7874015748031497,
      "duration": 0.262167918749995
    },
    {
      "name": "D#6",
      "midi": 87,
      "time": 76.69241268749984,
      "velocity": 0.7874015748031497,
      "duration": 0.23008830000000557
    },
    {
      "name": "D#6",
      "midi": 87,
      "time": 76.92471337499984,
      "velocity": 0.7874015748031497,
      "duration": 0.22898210625000104
    },
    {
      "name": "D#6",
      "midi": 87,
      "time": 77.15701406249984,
      "velocity": 0.7874015748031497,
      "duration": 0.26327411249999955
    },
    {
      "name": "D#6",
      "midi": 87,
      "time": 77.42250056249983,
      "velocity": 0.7874015748031497,
      "duration": 0.262167918749995
    },
    {
      "name": "D#6",
      "midi": 87,
      "time": 77.68798706249983,
      "velocity": 0.7874015748031497,
      "duration": 0.262167918749995
    },
    {
      "name": "D#6",
      "midi": 87,
      "time": 77.95347356249982,
      "velocity": 0.7874015748031497,
      "duration": 0.262167918749995
    },
    {
      "name": "D#6",
      "midi": 87,
      "time": 78.21896006249982,
      "velocity": 0.7874015748031497,
      "duration": 0.22898210625000104
    },
    {
      "name": "D#6",
      "midi": 87,
      "time": 78.45126074999982,
      "velocity": 0.7874015748031497,
      "duration": 0.23008830000000557
    },
    {
      "name": "D#6",
      "midi": 87,
      "time": 78.68356143749982,
      "velocity": 0.7874015748031497,
      "duration": 0.528760612499994
    },
    {
      "name": "D#6",
      "midi": 87,
      "time": 79.21453443749981,
      "velocity": 0.7874015748031497,
      "duration": 0.22898210625000104
    },
    {
      "name": "D#6",
      "midi": 87,
      "time": 79.44683512499981,
      "velocity": 0.7874015748031497,
      "duration": 0.22898210625000104
    },
    {
      "name": "D#6",
      "midi": 87,
      "time": 79.67913581249981,
      "velocity": 0.7874015748031497,
      "duration": 0.5608402312499976
    },
    {
      "name": "D#6",
      "midi": 87,
      "time": 80.2432946249998,
      "velocity": 0.7874015748031497,
      "duration": 0.23008830000000557
    },
    {
      "name": "D#6",
      "midi": 87,
      "time": 80.4755953124998,
      "velocity": 0.7874015748031497,
      "duration": 0.2953537312500032
    },
    {
      "name": "D#6",
      "midi": 87,
      "time": 80.77426762499981,
      "velocity": 0.7874015748031497,
      "duration": 0.23008830000000557
    },
    {
      "name": "D#6",
      "midi": 87,
      "time": 81.00656831249981,
      "velocity": 0.7874015748031497,
      "duration": 0.22898210625000104
    },
    {
      "name": "D#6",
      "midi": 87,
      "time": 81.23886899999981,
      "velocity": 0.7874015748031497,
      "duration": 0.22898210625000104
    },
    {
      "name": "D#6",
      "midi": 87,
      "time": 81.47116968749981,
      "velocity": 0.7874015748031497,
      "duration": 0.2953537312500032
    },
    {
      "name": "D#6",
      "midi": 87,
      "time": 81.76984199999981,
      "velocity": 0.7874015748031497,
      "duration": 0.22898210625000104
    },
    {
      "name": "D#6",
      "midi": 87,
      "time": 82.00214268749981,
      "velocity": 0.7874015748031497,
      "duration": 0.26327411249999955
    },
    {
      "name": "D#6",
      "midi": 87,
      "time": 82.26762918749981,
      "velocity": 0.7874015748031497,
      "duration": 0.262167918749995
    },
    {
      "name": "D#6",
      "midi": 87,
      "time": 82.5331156874998,
      "velocity": 0.7874015748031497,
      "duration": 0.22898210625000104
    },
    {
      "name": "D#6",
      "midi": 87,
      "time": 82.7654163749998,
      "velocity": 0.7874015748031497,
      "duration": 0.5276544187500036
    },
    {
      "name": "D#6",
      "midi": 87,
      "time": 83.2963893749998,
      "velocity": 0.7874015748031497,
      "duration": 0.23008830000000557
    },
    {
      "name": "D#6",
      "midi": 87,
      "time": 83.5286900624998,
      "velocity": 0.7874015748031497,
      "duration": 0.22898210625000104
    },
    {
      "name": "D#6",
      "midi": 87,
      "time": 83.7609907499998,
      "velocity": 0.7874015748031497,
      "duration": 0.5608402312499976
    },
    {
      "name": "D#6",
      "midi": 87,
      "time": 84.3251495624998,
      "velocity": 0.7874015748031497,
      "duration": 0.22898210625000104
    },
    {
      "name": "D#6",
      "midi": 87,
      "time": 84.5574502499998,
      "velocity": 0.7874015748031497,
      "duration": 0.262167918749995
    },
    {
      "name": "D#6",
      "midi": 87,
      "time": 84.8229367499998,
      "velocity": 0.7874015748031497,
      "duration": 0.22898210625000104
    },
    {
      "name": "D#6",
      "midi": 87,
      "time": 85.0552374374998,
      "velocity": 0.7874015748031497,
      "duration": 0.26327411249999955
    },
    {
      "name": "D#6",
      "midi": 87,
      "time": 85.32072393749979,
      "velocity": 0.7874015748031497,
      "duration": 0.262167918749995
    },
    {
      "name": "D#6",
      "midi": 87,
      "time": 85.58621043749979,
      "velocity": 0.7874015748031497,
      "duration": 0.26327411249999955
    },
    {
      "name": "D#6",
      "midi": 87,
      "time": 85.85169693749978,
      "velocity": 0.7874015748031497,
      "duration": 0.22898210625000104
    },
    {
      "name": "D#6",
      "midi": 87,
      "time": 86.08399762499978,
      "velocity": 0.7874015748031497,
      "duration": 0.262167918749995
    },
    {
      "name": "D#6",
      "midi": 87,
      "time": 86.34948412499978,
      "velocity": 0.7874015748031497,
      "duration": 0.262167918749995
    },
    {
      "name": "D#6",
      "midi": 87,
      "time": 86.61497062499977,
      "velocity": 0.7874015748031497,
      "duration": 0.2964599249999935
    },
    {
      "name": "D#6",
      "midi": 87,
      "time": 86.91364293749976,
      "velocity": 0.7874015748031497,
      "duration": 0.9922557937500045
    },
    {
      "name": "D#6",
      "midi": 87,
      "time": 87.90921731249976,
      "velocity": 0.7874015748031497,
      "duration": 0.5276544187500036
    },
    {
      "name": "D#6",
      "midi": 87,
      "time": 88.44019031249977,
      "velocity": 0.7874015748031497,
      "duration": 0.49446860624999545
    },
    {
      "name": "D#6",
      "midi": 87,
      "time": 88.93797749999976,
      "velocity": 0.7874015748031497,
      "duration": 0.5276544187500036
    },
    {
      "name": "D#6",
      "midi": 87,
      "time": 89.46895049999976,
      "velocity": 0.7874015748031497,
      "duration": 0.4955748
    },
    {
      "name": "D#6",
      "midi": 87,
      "time": 89.96673768749976,
      "velocity": 0.7874015748031497,
      "duration": 0.4955748
    },
    {
      "name": "D#6",
      "midi": 87,
      "time": 90.46452487499975,
      "velocity": 0.7874015748031497,
      "duration": 0.49446860624999545
    },
    {
      "name": "D#6",
      "midi": 87,
      "time": 90.96231206249975,
      "velocity": 0.7874015748031497,
      "duration": 1.0254416062499985
    },
    {
      "name": "D#6",
      "midi": 87,
      "time": 91.99107224999975,
      "velocity": 0.7874015748031497,
      "duration": 0.49446860624999545
    },
    {
      "name": "D#6",
      "midi": 87,
      "time": 92.48885943749974,
      "velocity": 0.7874015748031497,
      "duration": 0.5276544187500036
    },
    {
      "name": "D#6",
      "midi": 87,
      "time": 93.01983243749974,
      "velocity": 0.7874015748031497,
      "duration": 0.5276544187500036
    },
    {
      "name": "D#6",
      "midi": 87,
      "time": 93.55080543749975,
      "velocity": 0.7874015748031497,
      "duration": 0.4955748
    },
    {
      "name": "D#6",
      "midi": 87,
      "time": 94.04859262499974,
      "velocity": 0.7874015748031497,
      "duration": 0.49446860624999545
    },
    {
      "name": "D#6",
      "midi": 87,
      "time": 94.54637981249974,
      "velocity": 0.7874015748031497,
      "duration": 0.49446860624999545
    },
    {
      "name": "D#6",
      "midi": 87,
      "time": 95.04416699999973,
      "velocity": 0.7874015748031497,
      "duration": 0.9933619874999948
    },
    {
      "name": "D#6",
      "midi": 87,
      "time": 96.03974137499972,
      "velocity": 0.7874015748031497,
      "duration": 0.528760612499994
    },
    {
      "name": "D#6",
      "midi": 87,
      "time": 96.57071437499971,
      "velocity": 0.7874015748031497,
      "duration": 0.4955748
    },
    {
      "name": "D#6",
      "midi": 87,
      "time": 97.0685015624997,
      "velocity": 0.7874015748031497,
      "duration": 1.0586274187500067
    },
    {
      "name": "D#6",
      "midi": 87,
      "time": 98.13044756249971,
      "velocity": 0.7874015748031497,
      "duration": 0.4280969812499933
    },
    {
      "name": "D#6",
      "midi": 87,
      "time": 98.5618631249997,
      "velocity": 0.7874015748031497,
      "duration": 0.5276544187500036
    },
    {
      "name": "D#6",
      "midi": 87,
      "time": 99.0928361249997,
      "velocity": 0.7874015748031497,
      "duration": 0.4955748
    },
    {
      "name": "D#6",
      "midi": 87,
      "time": 99.5906233124997,
      "velocity": 0.7874015748031497,
      "duration": 0.49446860624999545
    },
    {
      "name": "D#6",
      "midi": 87,
      "time": 100.0884104999997,
      "velocity": 0.7874015748031497,
      "duration": 0.49446860624999545
    },
    {
      "name": "D#6",
      "midi": 87,
      "time": 100.58619768749969,
      "velocity": 0.7874015748031497,
      "duration": 0.49446860624999545
    },
    {
      "name": "D#6",
      "midi": 87,
      "time": 101.08398487499969,
      "velocity": 0.7874015748031497,
      "duration": 2.0210159812500024
    },
    {
      "name": "D#6",
      "midi": 87,
      "time": 103.10831943749969,
      "velocity": 0.7874015748031497,
      "duration": 0.9601761750000009
    },
    {
      "name": "D#6",
      "midi": 87,
      "time": 104.07070799999968,
      "velocity": 0.7874015748031497,
      "duration": 0.49446860624999545
    },
    {
      "name": "D#6",
      "midi": 87,
      "time": 104.56849518749968,
      "velocity": 0.7874015748031497,
      "duration": 0.4612827937500015
    },
    {
      "name": "D#6",
      "midi": 87,
      "time": 105.03309656249968,
      "velocity": 0.7874015748031497,
      "duration": 0.49446860624999545
    },
    {
      "name": "D#6",
      "midi": 87,
      "time": 105.53088374999967,
      "velocity": 0.7874015748031497,
      "duration": 0.4955748
    },
    {
      "name": "D#6",
      "midi": 87,
      "time": 106.02867093749967,
      "velocity": 0.7874015748031497,
      "duration": 0.4612827937500015
    },
    {
      "name": "D#6",
      "midi": 87,
      "time": 106.49327231249967,
      "velocity": 0.7874015748031497,
      "duration": 0.5276544187500036
    },
    {
      "name": "D#6",
      "midi": 87,
      "time": 107.02424531249967,
      "velocity": 0.7874015748031497,
      "duration": 0.9258841687500023
    },
    {
      "name": "D#6",
      "midi": 87,
      "time": 107.95344806249967,
      "velocity": 0.7874015748031497,
      "duration": 0.49446860624999545
    },
    {
      "name": "D#6",
      "midi": 87,
      "time": 108.45123524999967,
      "velocity": 0.7874015748031497,
      "duration": 0.49446860624999545
    },
    {
      "name": "D#6",
      "midi": 87,
      "time": 108.94902243749966,
      "velocity": 0.7874015748031497,
      "duration": 0.49446860624999545
    },
    {
      "name": "D#6",
      "midi": 87,
      "time": 109.44680962499966,
      "velocity": 0.7874015748031497,
      "duration": 0.4612827937500015
    },
    {
      "name": "D#6",
      "midi": 87,
      "time": 109.91141099999966,
      "velocity": 0.7874015748031497,
      "duration": 0.4612827937500015
    },
    {
      "name": "D#6",
      "midi": 87,
      "time": 110.37601237499966,
      "velocity": 0.7874015748031497,
      "duration": 0.49446860624999545
    },
    {
      "name": "D#6",
      "midi": 87,
      "time": 110.87379956249966,
      "velocity": 0.7874015748031497,
      "duration": 0.9922557937500045
    },
    {
      "name": "D#6",
      "midi": 87,
      "time": 111.86937393749966,
      "velocity": 0.7874015748031497,
      "duration": 0.4612827937500015
    },
    {
      "name": "D#6",
      "midi": 87,
      "time": 112.33397531249966,
      "velocity": 0.7874015748031497,
      "duration": 0.462388987500006
    },
    {
      "name": "D#6",
      "midi": 87,
      "time": 112.79857668749966,
      "velocity": 0.7874015748031497,
      "duration": 0.9590699812499963
    },
    {
      "name": "D#6",
      "midi": 87,
      "time": 113.76096524999966,
      "velocity": 0.7874015748031497,
      "duration": 0.4955748
    },
    {
      "name": "D#6",
      "midi": 87,
      "time": 114.25875243749965,
      "velocity": 0.7874015748031497,
      "duration": 0.4280969812499933
    },
    {
      "name": "D#6",
      "midi": 87,
      "time": 114.69016799999964,
      "velocity": 0.7874015748031497,
      "duration": 0.49446860624999545
    },
    {
      "name": "D#6",
      "midi": 87,
      "time": 115.18795518749964,
      "velocity": 0.7874015748031497,
      "duration": 0.4955748
    },
    {
      "name": "D#6",
      "midi": 87,
      "time": 115.68574237499963,
      "velocity": 0.7874015748031497,
      "duration": 0.4612827937500015
    },
    {
      "name": "D#6",
      "midi": 87,
      "time": 116.15034374999964,
      "velocity": 0.7874015748031497,
      "duration": 0.4612827937500015
    },
    {
      "name": "D#6",
      "midi": 87,
      "time": 116.61494512499964,
      "velocity": 0.7874015748031497,
      "duration": 0.9933619874999948
    },
    {
      "name": "D#6",
      "midi": 87,
      "time": 117.61051949999963,
      "velocity": 0.7874015748031497,
      "duration": 0.49446860624999545
    },
    {
      "name": "D#6",
      "midi": 87,
      "time": 118.10830668749962,
      "velocity": 0.7874015748031497,
      "duration": 0.4612827937500015
    },
    {
      "name": "D#6",
      "midi": 87,
      "time": 118.57290806249962,
      "velocity": 0.7874015748031497,
      "duration": 0.9590699812499963
    },
    {
      "name": "D#6",
      "midi": 87,
      "time": 119.53529662499962,
      "velocity": 0.7874015748031497,
      "duration": 0.4612827937500015
    },
    {
      "name": "D#6",
      "midi": 87,
      "time": 119.99989799999962,
      "velocity": 0.7874015748031497,
      "duration": 0.4612827937500015
    },
    {
      "name": "D#6",
      "midi": 87,
      "time": 120.46449937499962,
      "velocity": 0.7874015748031497,
      "duration": 0.49446860624999545
    },
    {
      "name": "D#6",
      "midi": 87,
      "time": 120.96228656249961,
      "velocity": 0.7874015748031497,
      "duration": 0.4612827937500015
    },
    {
      "name": "D#6",
      "midi": 87,
      "time": 121.42688793749961,
      "velocity": 0.7874015748031497,
      "duration": 0.4612827937500015
    },
    {
      "name": "D#6",
      "midi": 87,
      "time": 121.89148931249962,
      "velocity": 0.7874015748031497,
      "duration": 0.49446860624999545
    },
    {
      "name": "D#6",
      "midi": 87,
      "time": 122.38927649999961,
      "velocity": 0.7874015748031497,
      "duration": 0.9258841687500023
    },
    {
      "name": "D#6",
      "midi": 87,
      "time": 123.31847924999961,
      "velocity": 0.7874015748031497,
      "duration": 0.4612827937500015
    },
    {
      "name": "D#6",
      "midi": 87,
      "time": 123.78308062499961,
      "velocity": 0.7874015748031497,
      "duration": 0.49446860624999545
    },
    {
      "name": "D#6",
      "midi": 87,
      "time": 124.28086781249961,
      "velocity": 0.7874015748031497,
      "duration": 0.4612827937500015
    },
    {
      "name": "D#6",
      "midi": 87,
      "time": 124.74546918749961,
      "velocity": 0.7874015748031497,
      "duration": 0.49446860624999545
    },
    {
      "name": "D#6",
      "midi": 87,
      "time": 125.2432563749996,
      "velocity": 0.7874015748031497,
      "duration": 0.4292031749999978
    },
    {
      "name": "D#6",
      "midi": 87,
      "time": 125.6746719374996,
      "velocity": 0.7874015748031497,
      "duration": 0.49446860624999545
    },
    {
      "name": "D#6",
      "midi": 87,
      "time": 126.17245912499959,
      "velocity": 0.7874015748031497,
      "duration": 0.9590699812499963
    },
    {
      "name": "D#6",
      "midi": 87,
      "time": 127.13484768749959,
      "velocity": 0.7874015748031497,
      "duration": 0.9590699812499963
    },
    {
      "name": "D#6",
      "midi": 87,
      "time": 128.09723624999958,
      "velocity": 0.7874015748031497,
      "duration": 0.9258841687500023
    },
    {
      "name": "D#6",
      "midi": 87,
      "time": 129.02643899999958,
      "velocity": 0.7874015748031497,
      "duration": 0.9590699812499963
    },
    {
      "name": "D#6",
      "midi": 87,
      "time": 129.98882756249958,
      "velocity": 0.7874015748031497,
      "duration": 0.9922557937499903
    },
    {
      "name": "D#6",
      "midi": 87,
      "time": 130.98440193749957,
      "velocity": 0.7874015748031497,
      "duration": 0.9269903624999927
    },
    {
      "name": "D#6",
      "midi": 87,
      "time": 131.91360468749957,
      "velocity": 0.7874015748031497,
      "duration": 0.9590699812499963
    },
    {
      "name": "D#6",
      "midi": 87,
      "time": 132.87599324999957,
      "velocity": 0.7874015748031497,
      "duration": 0.4623889874999918
    },
    {
      "name": "D#6",
      "midi": 87,
      "time": 133.34059462499957,
      "velocity": 0.7874015748031497,
      "duration": 0.4612827937500015
    },
    {
      "name": "D#6",
      "midi": 87,
      "time": 133.80519599999957,
      "velocity": 0.7874015748031497,
      "duration": 0.4292031749999978
    },
    {
      "name": "D#6",
      "midi": 87,
      "time": 134.23661156249958,
      "velocity": 0.7874015748031497,
      "duration": 0.22898210624998683
    },
    {
      "name": "D#6",
      "midi": 87,
      "time": 134.46891224999956,
      "velocity": 0.7874015748031497,
      "duration": 0.22898210624998683
    },
    {
      "name": "D#6",
      "midi": 87,
      "time": 134.70121293749955,
      "velocity": 0.7874015748031497,
      "duration": 0.23008830000000557
    },
    {
      "name": "D#6",
      "midi": 87,
      "time": 134.93351362499956,
      "velocity": 0.7874015748031497,
      "duration": 0.22898210624998683
    },
    {
      "name": "D#6",
      "midi": 87,
      "time": 135.16581431249955,
      "velocity": 0.7874015748031497,
      "duration": 0.22898210624998683
    },
    {
      "name": "D#6",
      "midi": 87,
      "time": 135.39811499999954,
      "velocity": 0.7874015748031497,
      "duration": 0.19579629374999286
    },
    {
      "name": "D#6",
      "midi": 87,
      "time": 135.59722987499953,
      "velocity": 0.7874015748031497,
      "duration": 0.4612827937500015
    },
    {
      "name": "D#6",
      "midi": 87,
      "time": 136.06183124999953,
      "velocity": 0.7874015748031497,
      "duration": 0.4280969812500075
    },
    {
      "name": "D#6",
      "midi": 87,
      "time": 136.49324681249954,
      "velocity": 0.7874015748031497,
      "duration": 0.4292031749999978
    },
    {
      "name": "D#6",
      "midi": 87,
      "time": 136.92466237499954,
      "velocity": 0.7874015748031497,
      "duration": 0.4612827937500015
    },
    {
      "name": "D#6",
      "midi": 87,
      "time": 137.38926374999954,
      "velocity": 0.7874015748031497,
      "duration": 0.8926983562500084
    },
    {
      "name": "D#6",
      "midi": 87,
      "time": 138.28528068749955,
      "velocity": 0.7874015748031497,
      "duration": 0.4612827937500015
    },
    {
      "name": "D#6",
      "midi": 87,
      "time": 138.74988206249955,
      "velocity": 0.7874015748031497,
      "duration": 0.4612827937500015
    },
    {
      "name": "D#6",
      "midi": 87,
      "time": 139.21448343749955,
      "velocity": 0.7874015748031497,
      "duration": 0.4280969812500075
    },
    {
      "name": "D#6",
      "midi": 87,
      "time": 139.64589899999956,
      "velocity": 0.7874015748031497,
      "duration": 0.4280969812500075
    },
    {
      "name": "D#6",
      "midi": 87,
      "time": 140.07731456249957,
      "velocity": 0.7874015748031497,
      "duration": 0.4292031749999978
    },
    {
      "name": "D#6",
      "midi": 87,
      "time": 140.50873012499957,
      "velocity": 0.7874015748031497,
      "duration": 0.4612827937500015
    },
    {
      "name": "D#6",
      "midi": 87,
      "time": 140.97333149999957,
      "velocity": 0.7874015748031497,
      "duration": 1.7555294812499938
    },
    {
      "name": "D#6",
      "midi": 87,
      "time": 142.73217956249957,
      "velocity": 0.7874015748031497,
      "duration": 0.4612827937500015
    },
    {
      "name": "D#6",
      "midi": 87,
      "time": 143.19678093749957,
      "velocity": 0.7874015748031497,
      "duration": 0.4612827937500015
    },
    {
      "name": "D#6",
      "midi": 87,
      "time": 143.66138231249957,
      "velocity": 0.7874015748031497,
      "duration": 0.6935834812499877
    },
    {
      "name": "D#6",
      "midi": 87,
      "time": 144.35828437499956,
      "velocity": 0.7874015748031497,
      "duration": 0.23008830000000557
    },
    {
      "name": "D#6",
      "midi": 87,
      "time": 144.59058506249957,
      "velocity": 0.7874015748031497,
      "duration": 0.6603976687499937
    },
    {
      "name": "D#6",
      "midi": 87,
      "time": 145.25430131249956,
      "velocity": 0.7874015748031497,
      "duration": 0.23008830000000557
    },
    {
      "name": "D#6",
      "midi": 87,
      "time": 145.48660199999958,
      "velocity": 0.7874015748031497,
      "duration": 0.6603976687499937
    },
    {
      "name": "D#6",
      "midi": 87,
      "time": 146.15031824999957,
      "velocity": 0.7874015748031497,
      "duration": 0.2621679187500092
    },
    {
      "name": "D#6",
      "midi": 87,
      "time": 146.41580474999958,
      "velocity": 0.7874015748031497,
      "duration": 0.6272118562499998
    },
    {
      "name": "D#6",
      "midi": 87,
      "time": 147.04633518749958,
      "velocity": 0.7874015748031497,
      "duration": 0.2621679187500092
    },
    {
      "name": "D#6",
      "midi": 87,
      "time": 147.3118216874996,
      "velocity": 0.7874015748031497,
      "duration": 0.4280969812500075
    },
    {
      "name": "D#6",
      "midi": 87,
      "time": 147.7432372499996,
      "velocity": 0.7874015748031497,
      "duration": 0.4292031749999978
    },
    {
      "name": "D#6",
      "midi": 87,
      "time": 148.1746528124996,
      "velocity": 0.7874015748031497,
      "duration": 0.49446860624999545
    },
    {
      "name": "D#6",
      "midi": 87,
      "time": 148.6724399999996,
      "velocity": 0.7874015748031497,
      "duration": 0.4280969812500075
    },
    {
      "name": "D#6",
      "midi": 87,
      "time": 149.1038555624996,
      "velocity": 0.7874015748031497,
      "duration": 0.4612827937500015
    },
    {
      "name": "D#6",
      "midi": 87,
      "time": 149.5684569374996,
      "velocity": 0.7874015748031497,
      "duration": 0.4612827937500015
    },
    {
      "name": "D#6",
      "midi": 87,
      "time": 150.0330583124996,
      "velocity": 0.7874015748031497,
      "duration": 0.4280969812500075
    },
    {
      "name": "D#6",
      "midi": 87,
      "time": 150.4644738749996,
      "velocity": 0.7874015748031497,
      "duration": 0.4280969812500075
    },
    {
      "name": "D#6",
      "midi": 87,
      "time": 150.89588943749962,
      "velocity": 0.7874015748031497,
      "duration": 0.4955748000000142
    },
    {
      "name": "D#6",
      "midi": 87,
      "time": 151.39367662499964,
      "velocity": 0.7874015748031497,
      "duration": 0.4280969812500075
    },
    {
      "name": "D#6",
      "midi": 87,
      "time": 151.82509218749965,
      "velocity": 0.7874015748031497,
      "duration": 0.4292031749999978
    },
    {
      "name": "D#6",
      "midi": 87,
      "time": 152.25650774999966,
      "velocity": 0.7874015748031497,
      "duration": 0.4612827937500015
    },
    {
      "name": "D#6",
      "midi": 87,
      "time": 152.72110912499966,
      "velocity": 0.7874015748031497,
      "duration": 0.4623889874999918
    },
    {
      "name": "D#6",
      "midi": 87,
      "time": 153.18571049999966,
      "velocity": 0.7874015748031497,
      "duration": 0.4280969812500075
    },
    {
      "name": "D#6",
      "midi": 87,
      "time": 153.61712606249966,
      "velocity": 0.7874015748031497,
      "duration": 0.4292031749999978
    },
    {
      "name": "D#6",
      "midi": 87,
      "time": 154.04854162499967,
      "velocity": 0.7874015748031497,
      "duration": 0.4612827937500015
    },
    {
      "name": "D#6",
      "midi": 87,
      "time": 154.51314299999967,
      "velocity": 0.7874015748031497,
      "duration": 0.4292031749999978
    },
    {
      "name": "D#6",
      "midi": 87,
      "time": 154.94455856249968,
      "velocity": 0.7874015748031497,
      "duration": 0.49446860624999545
    },
    {
      "name": "D#6",
      "midi": 87,
      "time": 155.44234574999967,
      "velocity": 0.7874015748031497,
      "duration": 0.4292031749999978
    },
    {
      "name": "D#6",
      "midi": 87,
      "time": 155.87376131249968,
      "velocity": 0.7874015748031497,
      "duration": 0.4280969812500075
    },
    {
      "name": "D#6",
      "midi": 87,
      "time": 156.3051768749997,
      "velocity": 0.7874015748031497,
      "duration": 0.4292031749999978
    },
    {
      "name": "D#6",
      "midi": 87,
      "time": 156.7365924374997,
      "velocity": 0.7874015748031497,
      "duration": 0.49446860624999545
    },
    {
      "name": "D#6",
      "midi": 87,
      "time": 157.2343796249997,
      "velocity": 0.7874015748031497,
      "duration": 0.4280969812500075
    },
    {
      "name": "D#6",
      "midi": 87,
      "time": 157.6657951874997,
      "velocity": 0.7874015748031497,
      "duration": 0.4612827937500015
    },
    {
      "name": "D#6",
      "midi": 87,
      "time": 158.1303965624997,
      "velocity": 0.7874015748031497,
      "duration": 0.4612827937500015
    },
    {
      "name": "D#6",
      "midi": 87,
      "time": 158.5949979374997,
      "velocity": 0.7874015748031497,
      "duration": 0.49446860624999545
    },
    {
      "name": "D#6",
      "midi": 87,
      "time": 159.0927851249997,
      "velocity": 0.7874015748031497,
      "duration": 0.4612827937500015
    },
    {
      "name": "D#6",
      "midi": 87,
      "time": 159.5573864999997,
      "velocity": 0.7874015748031497,
      "duration": 0.4612827937500015
    },
    {
      "name": "D#6",
      "midi": 87,
      "time": 160.0219878749997,
      "velocity": 0.7874015748031497,
      "duration": 0.5276544187499894
    },
    {
      "name": "D#6",
      "midi": 87,
      "time": 160.55296087499968,
      "velocity": 0.7874015748031497,
      "duration": 0.5940260437500058
    },
    {
      "name": "D#6",
      "midi": 87,
      "time": 161.1503054999997,
      "velocity": 0.7874015748031497,
      "duration": 0.6272118562499998
    },
    {
      "name": "D#6",
      "midi": 87,
      "time": 161.7808359374997,
      "velocity": 0.7874015748031497,
      "duration": 0.793140918749998
    },
    {
      "name": "D#6",
      "midi": 87,
      "time": 162.57729543749969,
      "velocity": 0.7874015748031497,
      "duration": 1.3938041250000026
    }
  ]
}