﻿{
  "notes": [
    {
      "name": "D6",
      "midi": 86,
      "time": 0.9579734354166668,
      "velocity": 0.7874015748031497,
      "duration": 0.20258605833333332
    },
    {
      "name": "D6",
      "midi": 86,
      "time": 1.1637922500000002,
      "velocity": 0.7874015748031497,
      "duration": 0.21228432708333345
    },
    {
      "name": "D6",
      "midi": 86,
      "time": 1.3793093333333337,
      "velocity": 0.7874015748031497,
      "duration": 0.3415945770833333
    },
    {
      "name": "D6",
      "midi": 86,
      "time": 1.724136666666667,
      "velocity": 0.7874015748031497,
      "duration": 0.3846979937499999
    },
    {
      "name": "D6",
      "midi": 86,
      "time": 2.112067416666667,
      "velocity": 0.7874015748031497,
      "duration": 0.4278014104166665
    },
    {
      "name": "D6",
      "midi": 86,
      "time": 2.5431015833333337,
      "velocity": 0.7874015748031497,
      "duration": 0.4278014104166665
    },
    {
      "name": "D6",
      "midi": 86,
      "time": 2.9741357500000003,
      "velocity": 0.7874015748031497,
      "duration": 0.47090482708333337
    },
    {
      "name": "D6",
      "midi": 86,
      "time": 3.4482733333333337,
      "velocity": 0.7874015748031497,
      "duration": 0.5581892458333337
    },
    {
      "name": "D6",
      "midi": 86,
      "time": 4.008617750000001,
      "velocity": 0.7874015748031497,
      "duration": 0.6433184937499998
    },
    {
      "name": "D6",
      "midi": 86,
      "time": 4.655169000000001,
      "velocity": 0.7874015748031497,
      "duration": 1.7241366666666664
    },
    {
      "name": "D6",
      "midi": 86,
      "time": 8.66378675,
      "velocity": 0.7874015748031497,
      "duration": 0.16918091041666727
    },
    {
      "name": "D6",
      "midi": 86,
      "time": 8.879303833333333,
      "velocity": 0.7874015748031497,
      "duration": 0.21228432708333322
    },
    {
      "name": "D6",
      "midi": 86,
      "time": 9.094820916666666,
      "velocity": 0.7874015748031497,
      "duration": 0.34267216249999954
    },
    {
      "name": "D6",
      "midi": 86,
      "time": 9.43964825,
      "velocity": 0.7874015748031497,
      "duration": 0.38577557916666727
    },
    {
      "name": "D6",
      "midi": 86,
      "time": 9.827579,
      "velocity": 0.7874015748031497,
      "duration": 0.38577557916666727
    },
    {
      "name": "D6",
      "midi": 86,
      "time": 10.21550975,
      "velocity": 0.7874015748031497,
      "duration": 0.4288789958333332
    },
    {
      "name": "D6",
      "midi": 86,
      "time": 10.646543916666667,
      "velocity": 0.7874015748031497,
      "duration": 0.47198241249999917
    },
    {
      "name": "D6",
      "midi": 86,
      "time": 11.1206815,
      "velocity": 0.7874015748031497,
      "duration": 0.5140082437500002
    },
    {
      "name": "D6",
      "midi": 86,
      "time": 11.6379225,
      "velocity": 0.7874015748031497,
      "duration": 0.6874994958333343
    },
    {
      "name": "D6",
      "midi": 86,
      "time": 12.327577166666668,
      "velocity": 0.7874015748031497,
      "duration": 1.5948264166666668
    },
    {
      "name": "D6",
      "midi": 86,
      "time": 16.120677833333335,
      "velocity": 0.7874015748031497,
      "duration": 0.212284327083335
    },
    {
      "name": "D6",
      "midi": 86,
      "time": 16.33619491666667,
      "velocity": 0.7874015748031497,
      "duration": 0.212284327083335
    },
    {
      "name": "D6",
      "midi": 86,
      "time": 16.551712000000006,
      "velocity": 0.7874015748031497,
      "duration": 0.3857755791666655
    },
    {
      "name": "D6",
      "midi": 86,
      "time": 16.939642750000004,
      "velocity": 0.7874015748031497,
      "duration": 0.212284327083335
    },
    {
      "name": "D6",
      "midi": 86,
      "time": 17.15515983333334,
      "velocity": 0.7874015748031497,
      "duration": 0.3846979937499988
    },
    {
      "name": "D6",
      "midi": 86,
      "time": 17.54309058333334,
      "velocity": 0.7874015748031497,
      "duration": 0.2553877437499992
    },
    {
      "name": "D6",
      "midi": 86,
      "time": 17.801711083333338,
      "velocity": 0.7874015748031497,
      "duration": 0.212284327083335
    },
    {
      "name": "D6",
      "midi": 86,
      "time": 18.017228166666673,
      "velocity": 0.7874015748031497,
      "duration": 0.3846979937499988
    },
    {
      "name": "D6",
      "midi": 86,
      "time": 18.40515891666667,
      "velocity": 0.7874015748031497,
      "duration": 0.2133619125000017
    },
    {
      "name": "D6",
      "midi": 86,
      "time": 18.620676000000007,
      "velocity": 0.7874015748031497,
      "duration": 0.212284327083335
    },
    {
      "name": "D6",
      "midi": 86,
      "time": 18.83619308333334,
      "velocity": 0.7874015748031497,
      "duration": 0.3846979937499988
    },
    {
      "name": "D6",
      "midi": 86,
      "time": 19.22412383333334,
      "velocity": 0.7874015748031497,
      "duration": 0.2133619125000017
    },
    {
      "name": "D6",
      "midi": 86,
      "time": 19.439640916666676,
      "velocity": 0.7874015748031497,
      "duration": 0.4288789958333332
    },
    {
      "name": "D6",
      "midi": 86,
      "time": 19.870675083333342,
      "velocity": 0.7874015748031497,
      "duration": 0.4278014104166665
    },
    {
      "name": "D6",
      "midi": 86,
      "time": 20.30170925000001,
      "velocity": 0.7874015748031497,
      "duration": 0.4278014104166665
    },
    {
      "name": "D6",
      "midi": 86,
      "time": 20.732743416666676,
      "velocity": 0.7874015748031497,
      "duration": 0.47090482708333425
    },
    {
      "name": "D6",
      "midi": 86,
      "time": 21.20688100000001,
      "velocity": 0.7874015748031497,
      "duration": 0.4278014104166665
    },
    {
      "name": "D6",
      "midi": 86,
      "time": 21.637915166666676,
      "velocity": 0.7874015748031497,
      "duration": 1.2898697437499997
    },
    {
      "name": "D6",
      "midi": 86,
      "time": 22.931017666666676,
      "velocity": 0.7874015748031497,
      "duration": 0.2133619125000017
    },
    {
      "name": "D6",
      "midi": 86,
      "time": 23.14653475000001,
      "velocity": 0.7874015748031497,
      "duration": 0.212284327083335
    },
    {
      "name": "D6",
      "midi": 86,
      "time": 23.362051833333346,
      "velocity": 0.7874015748031497,
      "duration": 1.1174560770833324
    },
    {
      "name": "D6",
      "midi": 86,
      "time": 24.48274066666668,
      "velocity": 0.7874015748031497,
      "duration": 0.212284327083335
    },
    {
      "name": "D6",
      "midi": 86,
      "time": 24.698257750000014,
      "velocity": 0.7874015748031497,
      "duration": 0.212284327083335
    },
    {
      "name": "D6",
      "midi": 86,
      "time": 24.91377483333335,
      "velocity": 0.7874015748031497,
      "duration": 0.212284327083335
    },
    {
      "name": "D6",
      "midi": 86,
      "time": 25.129291916666684,
      "velocity": 0.7874015748031497,
      "duration": 1.246766327083332
    },
    {
      "name": "D6",
      "midi": 86,
      "time": 26.379291000000016,
      "velocity": 0.7874015748031497,
      "duration": 0.2553877437499992
    },
    {
      "name": "D6",
      "midi": 86,
      "time": 26.637911500000016,
      "velocity": 0.7874015748031497,
      "duration": 0.212284327083335
    },
    {
      "name": "D6",
      "midi": 86,
      "time": 26.85342858333335,
      "velocity": 0.7874015748031497,
      "duration": 1.2909473291666664
    },
    {
      "name": "D6",
      "midi": 86,
      "time": 28.14653108333335,
      "velocity": 0.7874015748031497,
      "duration": 0.212284327083335
    },
    {
      "name": "D6",
      "midi": 86,
      "time": 28.362048166666685,
      "velocity": 0.7874015748031497,
      "duration": 0.25646532916666587
    },
    {
      "name": "D6",
      "midi": 86,
      "time": 28.620668666666685,
      "velocity": 0.7874015748031497,
      "duration": 0.9019389937500009
    },
    {
      "name": "D6",
      "midi": 86,
      "time": 29.525840416666686,
      "velocity": 0.7874015748031497,
      "duration": 0.8588355770833331
    },
    {
      "name": "D6",
      "midi": 86,
      "time": 30.38790875000002,
      "velocity": 0.7874015748031497,
      "duration": 0.5140082437499984
    },
    {
      "name": "D6",
      "midi": 86,
      "time": 30.905149750000017,
      "velocity": 0.7874015748031497,
      "duration": 0.2133619125000017
    },
    {
      "name": "D6",
      "midi": 86,
      "time": 31.16377025000002,
      "velocity": 0.7874015748031497,
      "duration": 0.6433184937500016
    },
    {
      "name": "D6",
      "midi": 86,
      "time": 31.810321500000022,
      "velocity": 0.7874015748031497,
      "duration": 0.21228432708333145
    },
    {
      "name": "D6",
      "midi": 86,
      "time": 32.02583858333335,
      "velocity": 0.7874015748031497,
      "duration": 0.4278014104166701
    },
    {
      "name": "D6",
      "midi": 86,
      "time": 32.456872750000024,
      "velocity": 0.7874015748031497,
      "duration": 0.21228432708333145
    },
    {
      "name": "D6",
      "midi": 86,
      "time": 32.672389833333355,
      "velocity": 0.7874015748031497,
      "duration": 0.21228432708333145
    },
    {
      "name": "D6",
      "midi": 86,
      "time": 32.88790691666669,
      "velocity": 0.7874015748031497,
      "duration": 0.38469799375000235
    },
    {
      "name": "D6",
      "midi": 86,
      "time": 33.27583766666669,
      "velocity": 0.7874015748031497,
      "duration": 0.21228432708333145
    },
    {
      "name": "D6",
      "midi": 86,
      "time": 33.49135475000002,
      "velocity": 0.7874015748031497,
      "duration": 0.21228432708333145
    },
    {
      "name": "D6",
      "midi": 86,
      "time": 33.70687183333335,
      "velocity": 0.7874015748031497,
      "duration": 0.21228432708333145
    },
    {
      "name": "D6",
      "midi": 86,
      "time": 33.922388916666684,
      "velocity": 0.7874015748031497,
      "duration": 0.4278014104166701
    },
    {
      "name": "D6",
      "midi": 86,
      "time": 34.353423083333354,
      "velocity": 0.7874015748031497,
      "duration": 0.38469799375000235
    },
    {
      "name": "D6",
      "midi": 86,
      "time": 34.741353833333356,
      "velocity": 0.7874015748031497,
      "duration": 0.4709048270833307
    },
    {
      "name": "D6",
      "midi": 86,
      "time": 35.21549141666669,
      "velocity": 0.7874015748031497,
      "duration": 0.4288789958333368
    },
    {
      "name": "D6",
      "midi": 86,
      "time": 35.64652558333336,
      "velocity": 0.7874015748031497,
      "duration": 0.4288789958333368
    },
    {
      "name": "D6",
      "midi": 86,
      "time": 36.07755975000003,
      "velocity": 0.7874015748031497,
      "duration": 0.2984911604166669
    },
    {
      "name": "D6",
      "midi": 86,
      "time": 36.379283666666694,
      "velocity": 0.7874015748031497,
      "duration": 0.2553877437499992
    },
    {
      "name": "D6",
      "midi": 86,
      "time": 36.637904166666694,
      "velocity": 0.7874015748031497,
      "duration": 0.21228432708333145
    },
    {
      "name": "D6",
      "midi": 86,
      "time": 36.853421250000025,
      "velocity": 0.7874015748031497,
      "duration": 0.21228432708333145
    },
    {
      "name": "D6",
      "midi": 86,
      "time": 37.06893833333336,
      "velocity": 0.7874015748031497,
      "duration": 0.25646532916666587
    },
    {
      "name": "D6",
      "midi": 86,
      "time": 37.327558833333356,
      "velocity": 0.7874015748031497,
      "duration": 0.4288789958333368
    },
    {
      "name": "D6",
      "midi": 86,
      "time": 37.758593000000026,
      "velocity": 0.7874015748031497,
      "duration": 0.4709048270833307
    },
    {
      "name": "D6",
      "midi": 86,
      "time": 38.23273058333336,
      "velocity": 0.7874015748031497,
      "duration": 0.38577557916666905
    },
    {
      "name": "D6",
      "midi": 86,
      "time": 38.62066133333336,
      "velocity": 0.7874015748031497,
      "duration": 0.21228432708333145
    },
    {
      "name": "D6",
      "midi": 86,
      "time": 38.83617841666669,
      "velocity": 0.7874015748031497,
      "duration": 0.21228432708333145
    },
    {
      "name": "D6",
      "midi": 86,
      "time": 39.05169550000002,
      "velocity": 0.7874015748031497,
      "duration": 0.4709048270833307
    },
    {
      "name": "D6",
      "midi": 86,
      "time": 39.52583308333335,
      "velocity": 0.7874015748031497,
      "duration": 0.4278014104166701
    },
    {
      "name": "D6",
      "midi": 86,
      "time": 39.95686725000002,
      "velocity": 0.7874015748031497,
      "duration": 0.38469799375000235
    },
    {
      "name": "D6",
      "midi": 86,
      "time": 40.344798000000026,
      "velocity": 0.7874015748031497,
      "duration": 0.21228432708333145
    },
    {
      "name": "D6",
      "midi": 86,
      "time": 40.56031508333336,
      "velocity": 0.7874015748031497,
      "duration": 0.21228432708333145
    },
    {
      "name": "D6",
      "midi": 86,
      "time": 40.77583216666669,
      "velocity": 0.7874015748031497,
      "duration": 0.4278014104166701
    },
    {
      "name": "D6",
      "midi": 86,
      "time": 41.20686633333336,
      "velocity": 0.7874015748031497,
      "duration": 0.4709048270833307
    },
    {
      "name": "D6",
      "midi": 86,
      "time": 41.68100391666669,
      "velocity": 0.7874015748031497,
      "duration": 0.4278014104166701
    },
    {
      "name": "D6",
      "midi": 86,
      "time": 42.11203808333336,
      "velocity": 0.7874015748031497,
      "duration": 0.21336191249999814
    },
    {
      "name": "D6",
      "midi": 86,
      "time": 42.32755516666669,
      "velocity": 0.7874015748031497,
      "duration": 0.2553877437499992
    },
    {
      "name": "D6",
      "midi": 86,
      "time": 42.58617566666669,
      "velocity": 0.7874015748031497,
      "duration": 0.8157321604166654
    },
    {
      "name": "D6",
      "midi": 86,
      "time": 43.405140583333356,
      "velocity": 0.7874015748031497,
      "duration": 0.21336191249999814
    },
    {
      "name": "D6",
      "midi": 86,
      "time": 43.62065766666669,
      "velocity": 0.7874015748031497,
      "duration": 0.21228432708333145
    },
    {
      "name": "D6",
      "midi": 86,
      "time": 43.83617475000002,
      "velocity": 0.7874015748031497,
      "duration": 0.21336191249999814
    },
    {
      "name": "D6",
      "midi": 86,
      "time": 44.05169183333335,
      "velocity": 0.7874015748031497,
      "duration": 0.21228432708333145
    },
    {
      "name": "D6",
      "midi": 86,
      "time": 44.26720891666668,
      "velocity": 0.7874015748031497,
      "duration": 0.4278014104166701
    },
    {
      "name": "D6",
      "midi": 86,
      "time": 44.69824308333335,
      "velocity": 0.7874015748031497,
      "duration": 0.38469799375000235
    },
    {
      "name": "D6",
      "midi": 86,
      "time": 45.086173833333355,
      "velocity": 0.7874015748031497,
      "duration": 0.21336191249999814
    },
    {
      "name": "D6",
      "midi": 86,
      "time": 45.301690916666686,
      "velocity": 0.7874015748031497,
      "duration": 0.21228432708333145
    },
    {
      "name": "D6",
      "midi": 86,
      "time": 45.51720800000002,
      "velocity": 0.7874015748031497,
      "duration": 0.2553877437499992
    },
    {
      "name": "D6",
      "midi": 86,
      "time": 45.77582850000002,
      "velocity": 0.7874015748031497,
      "duration": 0.21228432708333145
    },
    {
      "name": "D6",
      "midi": 86,
      "time": 45.99134558333335,
      "velocity": 0.7874015748031497,
      "duration": 0.38469799375000235
    },
    {
      "name": "D6",
      "midi": 86,
      "time": 46.37927633333335,
      "velocity": 0.7874015748031497,
      "duration": 0.4278014104166701
    },
    {
      "name": "D6",
      "midi": 86,
      "time": 46.81031050000002,
      "velocity": 0.7874015748031497,
      "duration": 0.21228432708333145
    },
    {
      "name": "D6",
      "midi": 86,
      "time": 47.02582758333335,
      "velocity": 0.7874015748031497,
      "duration": 0.21228432708333145
    },
    {
      "name": "D6",
      "midi": 86,
      "time": 47.241344666666684,
      "velocity": 0.7874015748031497,
      "duration": 0.21228432708333145
    },
    {
      "name": "D6",
      "midi": 86,
      "time": 47.456861750000016,
      "velocity": 0.7874015748031497,
      "duration": 0.21228432708333145
    },
    {
      "name": "D6",
      "midi": 86,
      "time": 47.67237883333335,
      "velocity": 0.7874015748031497,
      "duration": 0.16918091041666372
    },
    {
      "name": "D6",
      "midi": 86,
      "time": 47.84479250000001,
      "velocity": 0.7874015748031497,
      "duration": 0.21228432708333145
    },
    {
      "name": "D6",
      "midi": 86,
      "time": 48.06030958333334,
      "velocity": 0.7874015748031497,
      "duration": 0.21228432708333145
    },
    {
      "name": "D6",
      "midi": 86,
      "time": 48.275826666666674,
      "velocity": 0.7874015748031497,
      "duration": 0.21228432708333145
    },
    {
      "name": "D6",
      "midi": 86,
      "time": 48.491343750000006,
      "velocity": 0.7874015748031497,
      "duration": 0.16918091041666372
    },
    {
      "name": "D6",
      "midi": 86,
      "time": 48.66375741666667,
      "velocity": 0.7874015748031497,
      "duration": 0.21228432708333145
    },
    {
      "name": "D6",
      "midi": 86,
      "time": 48.8792745,
      "velocity": 0.7874015748031497,
      "duration": 0.21228432708333145
    },
    {
      "name": "D6",
      "midi": 86,
      "time": 49.09479158333333,
      "velocity": 0.7874015748031497,
      "duration": 0.2553877437499992
    },
    {
      "name": "D6",
      "midi": 86,
      "time": 49.35341208333333,
      "velocity": 0.7874015748031497,
      "duration": 0.38469799375000235
    },
    {
      "name": "D6",
      "midi": 86,
      "time": 49.741342833333334,
      "velocity": 0.7874015748031497,
      "duration": 0.38469799375000235
    },
    {
      "name": "D6",
      "midi": 86,
      "time": 50.12927358333334,
      "velocity": 0.7874015748031497,
      "duration": 0.21228432708333145
    },
    {
      "name": "D6",
      "midi": 86,
      "time": 50.34479066666667,
      "velocity": 0.7874015748031497,
      "duration": 0.21228432708333145
    },
    {
      "name": "D6",
      "midi": 86,
      "time": 50.56030775,
      "velocity": 0.7874015748031497,
      "duration": 0.21228432708333145
    },
    {
      "name": "D6",
      "midi": 86,
      "time": 50.77582483333333,
      "velocity": 0.7874015748031497,
      "duration": 0.21228432708333145
    },
    {
      "name": "D6",
      "midi": 86,
      "time": 50.99134191666666,
      "velocity": 0.7874015748031497,
      "duration": 0.4709048270833307
    },
    {
      "name": "D6",
      "midi": 86,
      "time": 51.465479499999994,
      "velocity": 0.7874015748031497,
      "duration": 0.3415945770833346
    },
    {
      "name": "D6",
      "midi": 86,
      "time": 51.81030683333333,
      "velocity": 0.7874015748031497,
      "duration": 0.21228432708333145
    },
    {
      "name": "D6",
      "midi": 86,
      "time": 52.02582391666666,
      "velocity": 0.7874015748031497,
      "duration": 0.21228432708333145
    },
    {
      "name": "D6",
      "midi": 86,
      "time": 52.24134099999999,
      "velocity": 0.7874015748031497,
      "duration": 0.21228432708333145
    },
    {
      "name": "D6",
      "midi": 86,
      "time": 52.45685808333332,
      "velocity": 0.7874015748031497,
      "duration": 0.21228432708333145
    },
    {
      "name": "D6",
      "midi": 86,
      "time": 52.672375166666654,
      "velocity": 0.7874015748031497,
      "duration": 0.4278014104166701
    },
    {
      "name": "D6",
      "midi": 86,
      "time": 53.103409333333325,
      "velocity": 0.7874015748031497,
      "duration": 0.38469799375000235
    },
    {
      "name": "D6",
      "midi": 86,
      "time": 53.49134008333333,
      "velocity": 0.7874015748031497,
      "duration": 0.21228432708333145
    },
    {
      "name": "D6",
      "midi": 86,
      "time": 53.70685716666666,
      "velocity": 0.7874015748031497,
      "duration": 0.21228432708333145
    },
    {
      "name": "D6",
      "midi": 86,
      "time": 53.92237424999999,
      "velocity": 0.7874015748031497,
      "duration": 0.21228432708333145
    },
    {
      "name": "D6",
      "midi": 86,
      "time": 54.13789133333332,
      "velocity": 0.7874015748031497,
      "duration": 0.21228432708333145
    },
    {
      "name": "D6",
      "midi": 86,
      "time": 54.35340841666665,
      "velocity": 0.7874015748031497,
      "duration": 0.21228432708333145
    },
    {
      "name": "D6",
      "midi": 86,
      "time": 54.568925499999985,
      "velocity": 0.7874015748031497,
      "duration": 0.16918091041666372
    },
    {
      "name": "D6",
      "midi": 86,
      "time": 54.74133916666665,
      "velocity": 0.7874015748031497,
      "duration": 0.21228432708333145
    },
    {
      "name": "D6",
      "midi": 86,
      "time": 54.95685624999998,
      "velocity": 0.7874015748031497,
      "duration": 0.21228432708333145
    },
    {
      "name": "D6",
      "midi": 86,
      "time": 55.17237333333331,
      "velocity": 0.7874015748031497,
      "duration": 0.21228432708333145
    },
    {
      "name": "D6",
      "midi": 86,
      "time": 55.38789041666664,
      "velocity": 0.7874015748031497,
      "duration": 0.21228432708333145
    },
    {
      "name": "D6",
      "midi": 86,
      "time": 55.603407499999975,
      "velocity": 0.7874015748031497,
      "duration": 0.16918091041666372
    },
    {
      "name": "D6",
      "midi": 86,
      "time": 55.77582116666664,
      "velocity": 0.7874015748031497,
      "duration": 0.21228432708333145
    },
    {
      "name": "D6",
      "midi": 86,
      "time": 55.99133824999997,
      "velocity": 0.7874015748031497,
      "duration": 0.4278014104166701
    },
    {
      "name": "D6",
      "midi": 86,
      "time": 56.42237241666664,
      "velocity": 0.7874015748031497,
      "duration": 0.38469799375000235
    },
    {
      "name": "D6",
      "midi": 86,
      "time": 56.81030316666664,
      "velocity": 0.7874015748031497,
      "duration": 0.21228432708333145
    },
    {
      "name": "D6",
      "midi": 86,
      "time": 57.025820249999974,
      "velocity": 0.7874015748031497,
      "duration": 0.21228432708333145
    },
    {
      "name": "D6",
      "midi": 86,
      "time": 57.241337333333306,
      "velocity": 0.7874015748031497,
      "duration": 0.21228432708333145
    },
    {
      "name": "D6",
      "midi": 86,
      "time": 57.45685441666664,
      "velocity": 0.7874015748031497,
      "duration": 0.21228432708333145
    },
    {
      "name": "D6",
      "midi": 86,
      "time": 57.67237149999997,
      "velocity": 0.7874015748031497,
      "duration": 0.38469799375000235
    },
    {
      "name": "D6",
      "midi": 86,
      "time": 58.06030224999997,
      "velocity": 0.7874015748031497,
      "duration": 0.4278014104166701
    },
    {
      "name": "D6",
      "midi": 86,
      "time": 58.49133641666664,
      "velocity": 0.7874015748031497,
      "duration": 0.21228432708333145
    },
    {
      "name": "D6",
      "midi": 86,
      "time": 58.70685349999997,
      "velocity": 0.7874015748031497,
      "duration": 0.16918091041666372
    },
    {
      "name": "D6",
      "midi": 86,
      "time": 58.87926716666664,
      "velocity": 0.7874015748031497,
      "duration": 0.21228432708333145
    },
    {
      "name": "D6",
      "midi": 86,
      "time": 59.09478424999997,
      "velocity": 0.7874015748031497,
      "duration": 0.21228432708333145
    },
    {
      "name": "D6",
      "midi": 86,
      "time": 59.3103013333333,
      "velocity": 0.7874015748031497,
      "duration": 0.4709048270833307
    },
    {
      "name": "D6",
      "midi": 86,
      "time": 59.78443891666663,
      "velocity": 0.7874015748031497,
      "duration": 0.3415945770833346
    },
    {
      "name": "D6",
      "midi": 86,
      "time": 60.129266249999965,
      "velocity": 0.7874015748031497,
      "duration": 0.21228432708333145
    },
    {
      "name": "D6",
      "midi": 86,
      "time": 60.3447833333333,
      "velocity": 0.7874015748031497,
      "duration": 0.2553877437499992
    },
    {
      "name": "D6",
      "midi": 86,
      "time": 60.603403833333296,
      "velocity": 0.7874015748031497,
      "duration": 0.2553877437499992
    },
    {
      "name": "D6",
      "midi": 86,
      "time": 60.862024333333295,
      "velocity": 0.7874015748031497,
      "duration": 0.16918091041666372
    },
    {
      "name": "D6",
      "midi": 86,
      "time": 61.03443799999996,
      "velocity": 0.7874015748031497,
      "duration": 0.21228432708333145
    },
    {
      "name": "D6",
      "midi": 86,
      "time": 61.24995508333329,
      "velocity": 0.7874015748031497,
      "duration": 0.21228432708333145
    },
    {
      "name": "D6",
      "midi": 86,
      "time": 61.46547216666662,
      "velocity": 0.7874015748031497,
      "duration": 0.16918091041666372
    },
    {
      "name": "D6",
      "midi": 86,
      "time": 61.637885833333286,
      "velocity": 0.7874015748031497,
      "duration": 0.21228432708333145
    },
    {
      "name": "D6",
      "midi": 86,
      "time": 61.85340291666662,
      "velocity": 0.7874015748031497,
      "duration": 0.21228432708333145
    },
    {
      "name": "D6",
      "midi": 86,
      "time": 62.06891999999995,
      "velocity": 0.7874015748031497,
      "duration": 0.21228432708333145
    },
    {
      "name": "D6",
      "midi": 86,
      "time": 62.28443708333328,
      "velocity": 0.7874015748031497,
      "duration": 0.16918091041666372
    },
    {
      "name": "D6",
      "midi": 86,
      "time": 62.456850749999944,
      "velocity": 0.7874015748031497,
      "duration": 0.2553877437499992
    },
    {
      "name": "D6",
      "midi": 86,
      "time": 62.71547124999994,
      "velocity": 0.7874015748031497,
      "duration": 0.4719824124999974
    },
    {
      "name": "D6",
      "midi": 86,
      "time": 63.189608833333274,
      "velocity": 0.7874015748031497,
      "duration": 0.3415945770833346
    },
    {
      "name": "D6",
      "midi": 86,
      "time": 63.53443616666661,
      "velocity": 0.7874015748031497,
      "duration": 0.21228432708333145
    },
    {
      "name": "D6",
      "midi": 86,
      "time": 63.74995324999994,
      "velocity": 0.7874015748031497,
      "duration": 0.16918091041666372
    },
    {
      "name": "D6",
      "midi": 86,
      "time": 63.922366916666604,
      "velocity": 0.7874015748031497,
      "duration": 0.21228432708333855
    },
    {
      "name": "D6",
      "midi": 86,
      "time": 64.13788399999994,
      "velocity": 0.7874015748031497,
      "duration": 0.21228432708333855
    },
    {
      "name": "D6",
      "midi": 86,
      "time": 64.35340108333328,
      "velocity": 0.7874015748031497,
      "duration": 0.5150858291666651
    },
    {
      "name": "D6",
      "midi": 86,
      "time": 64.87064208333328,
      "velocity": 0.7874015748031497,
      "duration": 0.38577557916666194
    },
    {
      "name": "D6",
      "midi": 86,
      "time": 65.25857283333328,
      "velocity": 0.7874015748031497,
      "duration": 0.21228432708333855
    },
    {
      "name": "D6",
      "midi": 86,
      "time": 65.47408991666661,
      "velocity": 0.7874015748031497,
      "duration": 0.21336191250000525
    },
    {
      "name": "D6",
      "midi": 86,
      "time": 65.68960699999995,
      "velocity": 0.7874015748031497,
      "duration": 0.21228432708333855
    },
    {
      "name": "D6",
      "midi": 86,
      "time": 65.90512408333329,
      "velocity": 0.7874015748031497,
      "duration": 0.21336191250000525
    },
    {
      "name": "D6",
      "midi": 86,
      "time": 66.12064116666663,
      "velocity": 0.7874015748031497,
      "duration": 0.38577557916666194
    },
    {
      "name": "D6",
      "midi": 86,
      "time": 66.50857191666663,
      "velocity": 0.7874015748031497,
      "duration": 0.42887899583332967
    },
    {
      "name": "D6",
      "midi": 86,
      "time": 66.93960608333329,
      "velocity": 0.7874015748031497,
      "duration": 0.21228432708333855
    },
    {
      "name": "D6",
      "midi": 86,
      "time": 67.15512316666663,
      "velocity": 0.7874015748031497,
      "duration": 0.17025849583333752
    },
    {
      "name": "D6",
      "midi": 86,
      "time": 67.3275368333333,
      "velocity": 0.7874015748031497,
      "duration": 0.2553877437500063
    },
    {
      "name": "D6",
      "midi": 86,
      "time": 67.5861573333333,
      "velocity": 0.7874015748031497,
      "duration": 0.21336191250000525
    },
    {
      "name": "D6",
      "midi": 86,
      "time": 67.80167441666664,
      "velocity": 0.7874015748031497,
      "duration": 0.21228432708333855
    },
    {
      "name": "D6",
      "midi": 86,
      "time": 68.01719149999998,
      "velocity": 0.7874015748031497,
      "duration": 0.21228432708333855
    },
    {
      "name": "D6",
      "midi": 86,
      "time": 68.23270858333332,
      "velocity": 0.7874015748031497,
      "duration": 0.21228432708333855
    },
    {
      "name": "D6",
      "midi": 86,
      "time": 68.44822566666666,
      "velocity": 0.7874015748031497,
      "duration": 0.21228432708333855
    },
    {
      "name": "D6",
      "midi": 86,
      "time": 68.66374275,
      "velocity": 0.7874015748031497,
      "duration": 0.21228432708333855
    },
    {
      "name": "D6",
      "midi": 86,
      "time": 68.87925983333334,
      "velocity": 0.7874015748031497,
      "duration": 0.21228432708333855
    },
    {
      "name": "D6",
      "midi": 86,
      "time": 69.09477691666667,
      "velocity": 0.7874015748031497,
      "duration": 0.21228432708333855
    },
    {
      "name": "D6",
      "midi": 86,
      "time": 69.31029400000001,
      "velocity": 0.7874015748031497,
      "duration": 0.2553877437500063
    },
    {
      "name": "D6",
      "midi": 86,
      "time": 69.56891450000002,
      "velocity": 0.7874015748031497,
      "duration": 0.5140082437499984
    },
    {
      "name": "D6",
      "midi": 86,
      "time": 70.08615550000002,
      "velocity": 0.7874015748031497,
      "duration": 0.5140082437499984
    },
    {
      "name": "D6",
      "midi": 86,
      "time": 70.60339650000002,
      "velocity": 0.7874015748031497,
      "duration": 0.7295253270833371
    },
    {
      "name": "D6",
      "midi": 86,
      "time": 71.33615458333335,
      "velocity": 0.7874015748031497,
      "duration": 1.4224127500000066
    }
  ]
}